FIP_606 - Análise e Visualização de Dados em Fitopatologia -
…
Podemos assim observar que as premissas foram atendidas, com efeito não significativo das espécies.

Dados Não Paramétricos

Quando os dados violam as premissas básicas da ANOVA, como a normalidade dos resíduos e a homogeneidade das variâncias, os resultados da análise paramétrica podem se tornar inválidos. Nesses casos, é recomendável utilizar métodos não paramétricos, que são mais robustos e não exigem distribuição normal dos dados.

Usaremos como base o conjunto de dados InsectSprays, disponível no pacote base datasets do R. Esse conjunto registra o efeito de diferentes tipos de inseticidas na mortalidade de insetos, conforme descrito em Beall (1942). A variável resposta é o número de insetos mortos, e o fator em estudo é o tipo de spray utilizado. Se, ao aplicar uma ANOVA, as premissas não forem atendidas, uma alternativa adequada é o uso do teste de Kruskal-Wallis, que é o equivalente não paramétrico da ANOVA para comparar três ou mais grupos independentes. Vamos lá?

Code

insects <- tibble::as_tibble(InsectSprays) |>
  dplyr::select(spray, count)
insects

# A tibble: 72 × 2
   spray count
   <fct> <dbl>
 1 A        10
 2 A         7
 3 A        20
 4 A        14
 5 A        14
 6 A        12
 7 A        10
 8 A        23
 9 A        17
10 A        20
# ℹ 62 more rows
…
