FIP_606 - Análise e Visualização de Dados em Fitopatologia -
…
Para utilizar um data frame disponível em um pacote, é necessário carregar o pacote com a função library() e, em seguida, atribuir o conjunto de dados a um objeto utilizando o operador <-.

Por exemplo, ao buscar e carregar o pacote r4pde, é possível acessar o painel de ajuda desse pacote para visualizar os data frames incorporados, como o RustSoybean. Para utilizar esse conjunto de dados em sua análise, basta realizar a atribuição:

Code

if (!requireNamespace("pak", quietly = TRUE)) 
  install.packages("pak")
pak::pkg_install("emdelponte/r4pde")
library(r4pde)
df <- RustSoybean
df

# A tibble: 34 × 7
   epidemia latitude longitude local              planting   detection  severity
      <dbl>    <dbl>     <dbl> <chr>              <date>     <date>        <dbl>
 1       23    -23.0     -50.1 Cambara            2003-11-25 2004-02-02     24  
 2       24    -24.0     -52.4 Campo Mourao       2003-11-28 2004-02-02     21  
 3       31    -15.5     -55.2 Campo Verde        2004-11-20 2005-01-25     78  
 4        3    -13.3     -44.6 Correntina         2002-11-10 2003-01-03     85  
 5       15    -13.3     -44.6 Correntina         2003-11-28 2004-01-31     25  
 6       34    -25.4     -51.5 Guarapuava         2004-11-29 2005-03-14     32  
 7        7    -29.2     -53.7 Julio Castilhos    2002-12-15 2003-04-10     40  
 8       13    -12.1     -45.8 Luis Eduardo Maga… 2003-11-12 2004-02-15     39.2
 9       33    -12.1     -45.8 Luis Eduardo Maga… 2004-11-19 2005-01-25     55  
10        1    -23.3     -51.2 Londrina           2002-11-06 2003-02-03     45  
# ℹ 24 more rows
…
