FIP_606 - Análise e Visualização de Dados em Fitopatologia -
…
Transformação dos dados

Como abordado anteriormente podemos transformar os dados de diversas formas, as mais comuns são a logaritmica e a raiz quadrada.

Code

mofo2 <- mofo |>
  mutate (scl2 = log(scl))
  mofo2

# A tibble: 52 × 6
   study treat   inc   scl   yld  scl2
   <dbl> <dbl> <dbl> <dbl> <dbl> <dbl>
 1     1     1    76  2194  2265  7.69
 2     1     2    53  1663  2618  7.42
 3     1     3    42  1313  2554  7.18
 4     1     4    37  1177  2632  7.07
 5     1     5    29   753  2820  6.62
 6     1     6    42  1343  2799  7.20
 7     1     7    55  1519  2503  7.33
 8     1     8    40   516  2967  6.25
 9     1     9    26   643  2965  6.47
10     1    10    18   400  3088  5.99
# ℹ 42 more rows
…
Transformação por raiz quadrada

Transformação por raiz quadrada: essa transformação é útil para reduzir a assimetria em dados com distribuição assimétrica positiva.

Code

mofo2 <- mofo |>
  mutate (scl2 = sqrt(scl))
  mofo2

# A tibble: 52 × 6
   study treat   inc   scl   yld  scl2
   <dbl> <dbl> <dbl> <dbl> <dbl> <dbl>
 1     1     1    76  2194  2265  46.8
 2     1     2    53  1663  2618  40.8
 3     1     3    42  1313  2554  36.2
 4     1     4    37  1177  2632  34.3
 5     1     5    29   753  2820  27.4
 6     1     6    42  1343  2799  36.6
 7     1     7    55  1519  2503  39.0
 8     1     8    40   516  2967  22.7
 9     1     9    26   643  2965  25.4
10     1    10    18   400  3088  20  
# ℹ 42 more rows
…
